Copyright 1986-2018 Xilinx, Inc. All Rights Reserved.
---------------------------------------------------------------------------------------------------------------------------------------------------------------------------
| Tool Version : Vivado v.2018.2 (win64) Build 2258646 Thu Jun 14 20:03:12 MDT 2018
| Date         : Thu Jun 27 22:56:40 2019
| Host         : DESKTOP-SO7L327 running 64-bit major release  (build 9200)
| Command      : report_bus_skew -warn_on_violation -file system_top_top_bus_skew_routed.rpt -pb system_top_top_bus_skew_routed.pb -rpx system_top_top_bus_skew_routed.rpx
| Design       : system_top_top
| Device       : 7a100t-csg324
| Speed File   : -1  PRODUCTION 1.22 2018-03-21
---------------------------------------------------------------------------------------------------------------------------------------------------------------------------

Bus Skew Report

No bus skew constraints

