Copyright 1986-2018 Xilinx, Inc. All Rights Reserved.
------------------------------------------------------------------------------------------------------------------------------------
| Tool Version : Vivado v.2018.2 (win64) Build 2258646 Thu Jun 14 20:03:12 MDT 2018
| Date         : Thu Jun 27 22:56:05 2019
| Host         : DESKTOP-SO7L327 running 64-bit major release  (build 9200)
| Command      : report_drc -file system_top_top_drc_routed.rpt -pb system_top_top_drc_routed.pb -rpx system_top_top_drc_routed.rpx
| Design       : system_top_top
| Device       : xc7a100tcsg324-1
| Speed File   : -1
| Design State : Routed
------------------------------------------------------------------------------------------------------------------------------------

Report DRC

Table of Contents
-----------------
1. REPORT SUMMARY
2. REPORT DETAILS

1. REPORT SUMMARY
-----------------
            Netlist: netlist
          Floorplan: design_1
      Design limits: <entire design considered>
           Ruledeck: default
             Max violations: <unlimited>
             Violations found: 92
+-------------+----------+-------------------------------------------------------------+------------+
| Rule        | Severity | Description                                                 | Violations |
+-------------+----------+-------------------------------------------------------------+------------+
| CFGBVS-1    | Warning  | Missing CFGBVS and CONFIG_VOLTAGE Design Properties         | 1          |
| CHECK-3     | Warning  | Report rule limit reached                                   | 2          |
| PDRC-153    | Warning  | Gated clock check                                           | 14         |
| PLCK-12     | Warning  | Clock Placer Checks                                         | 1          |
| PLHOLDVIO-2 | Warning  | Non-Optimal connections which could lead to hold violations | 12         |
| REQP-1839   | Warning  | RAMB36 async control check                                  | 20         |
| REQP-1840   | Warning  | RAMB18 async control check                                  | 20         |
| RPBF-3      | Warning  | IO port buffering is incomplete                             | 22         |
+-------------+----------+-------------------------------------------------------------+------------+

2. REPORT DETAILS
-----------------
CFGBVS-1#1 Warning
Missing CFGBVS and CONFIG_VOLTAGE Design Properties  
Neither the CFGBVS nor CONFIG_VOLTAGE voltage property is set in the current_design.  Configuration bank voltage select (CFGBVS) must be set to VCCO or GND, and CONFIG_VOLTAGE must be set to the correct configuration voltage, in order to determine the I/O voltage support for the pins in bank 0.  It is suggested to specify these either using the 'Edit Device Properties' function in the GUI or directly in the XDC file using the following syntax:

 set_property CFGBVS value1 [current_design]
 #where value1 is either VCCO or GND

 set_property CONFIG_VOLTAGE value2 [current_design]
 #where value2 is the voltage provided to configuration bank 0

Refer to the device configuration user guide for more information.
Related violations: <none>

CHECK-3#1 Warning
Report rule limit reached  
REQP-1839 rule limit reached: 20 violations have been found.
Related violations: <none>

CHECK-3#2 Warning
Report rule limit reached  
REQP-1840 rule limit reached: 20 violations have been found.
Related violations: <none>

PDRC-153#1 Warning
Gated clock check  
Net system_top_inst/system/cpu_top/cpu/core/i_control_unit/i_state/bit_K_rg_reg is a gated clock net sourced by a combinational pin system_top_inst/system/cpu_top/cpu/core/i_control_unit/i_state/psw_out_reg[28]_i_2/O, cell system_top_inst/system/cpu_top/cpu/core/i_control_unit/i_state/psw_out_reg[28]_i_2. This is not good design practice and will likely impact performance. For SLICE registers, for example, use the CE pin to control the loading of data.
Related violations: <none>

PDRC-153#2 Warning
Gated clock check  
Net system_top_inst/system/dbg/tdr/int_in_0 is a gated clock net sourced by a combinational pin system_top_inst/system/dbg/tdr/j_flag[0]_i_2/O, cell system_top_inst/system/dbg/tdr/j_flag[0]_i_2. This is not good design practice and will likely impact performance. For SLICE registers, for example, use the CE pin to control the loading of data.
Related violations: <none>

PDRC-153#3 Warning
Gated clock check  
Net system_top_inst/system/dbg/tdr/int_in_2 is a gated clock net sourced by a combinational pin system_top_inst/system/dbg/tdr/j_flag[2]_i_2/O, cell system_top_inst/system/dbg/tdr/j_flag[2]_i_2. This is not good design practice and will likely impact performance. For SLICE registers, for example, use the CE pin to control the loading of data.
Related violations: <none>

PDRC-153#4 Warning
Gated clock check  
Net system_top_inst/system/dbg/tdr/int_in_3 is a gated clock net sourced by a combinational pin system_top_inst/system/dbg/tdr/j_flag[3]_i_2/O, cell system_top_inst/system/dbg/tdr/j_flag[3]_i_2. This is not good design practice and will likely impact performance. For SLICE registers, for example, use the CE pin to control the loading of data.
Related violations: <none>

PDRC-153#5 Warning
Gated clock check  
Net system_top_inst/system/dbg/tdr/int_in_4 is a gated clock net sourced by a combinational pin system_top_inst/system/dbg/tdr/j_flag[4]_i_2/O, cell system_top_inst/system/dbg/tdr/j_flag[4]_i_2. This is not good design practice and will likely impact performance. For SLICE registers, for example, use the CE pin to control the loading of data.
Related violations: <none>

PDRC-153#6 Warning
Gated clock check  
Net system_top_inst/system/dbg/tdr/int_in_5 is a gated clock net sourced by a combinational pin system_top_inst/system/dbg/tdr/j_flag[5]_i_2/O, cell system_top_inst/system/dbg/tdr/j_flag[5]_i_2. This is not good design practice and will likely impact performance. For SLICE registers, for example, use the CE pin to control the loading of data.
Related violations: <none>

PDRC-153#7 Warning
Gated clock check  
Net system_top_inst/system/dbg/tdr/int_in_6 is a gated clock net sourced by a combinational pin system_top_inst/system/dbg/tdr/j_flag[6]_i_2/O, cell system_top_inst/system/dbg/tdr/j_flag[6]_i_2. This is not good design practice and will likely impact performance. For SLICE registers, for example, use the CE pin to control the loading of data.
Related violations: <none>

PDRC-153#8 Warning
Gated clock check  
Net system_top_inst/system/dma_16/blockchange/insert_adr_case/adr_RAM_reg[3]_i_2_n_0 is a gated clock net sourced by a combinational pin system_top_inst/system/dma_16/blockchange/insert_adr_case/adr_RAM_reg[3]_i_2/O, cell system_top_inst/system/dma_16/blockchange/insert_adr_case/adr_RAM_reg[3]_i_2. This is not good design practice and will likely impact performance. For SLICE registers, for example, use the CE pin to control the loading of data.
Related violations: <none>

PDRC-153#9 Warning
Gated clock check  
Net system_top_inst/system/integrat_irq/cpu_irq[0] is a gated clock net sourced by a combinational pin system_top_inst/system/integrat_irq/j_flag[1]_i_1/O, cell system_top_inst/system/integrat_irq/j_flag[1]_i_1. This is not good design practice and will likely impact performance. For SLICE registers, for example, use the CE pin to control the loading of data.
Related violations: <none>

PDRC-153#10 Warning
Gated clock check  
Net system_top_inst/system/integrat_irq/irqcu_irq[0] is a gated clock net sourced by a combinational pin system_top_inst/system/integrat_irq/regIRQ0_p_i_1/O, cell system_top_inst/system/integrat_irq/regIRQ0_p_i_1. This is not good design practice and will likely impact performance. For SLICE registers, for example, use the CE pin to control the loading of data.
Related violations: <none>

PDRC-153#11 Warning
Gated clock check  
Net system_top_inst/system/integrat_irq/irqcu_irq[1] is a gated clock net sourced by a combinational pin system_top_inst/system/integrat_irq/regIRQ13_p_i_1/O, cell system_top_inst/system/integrat_irq/regIRQ13_p_i_1. This is not good design practice and will likely impact performance. For SLICE registers, for example, use the CE pin to control the loading of data.
Related violations: <none>

PDRC-153#12 Warning
Gated clock check  
Net system_top_inst/system/irqcu/int_in_7 is a gated clock net sourced by a combinational pin system_top_inst/system/irqcu/j_flag[7]_i_2/O, cell system_top_inst/system/irqcu/j_flag[7]_i_2. This is not good design practice and will likely impact performance. For SLICE registers, for example, use the CE pin to control the loading of data.
Related violations: <none>

PDRC-153#13 Warning
Gated clock check  
Net system_top_inst/system/tim0/timer_base/clk_tmr_gl is a gated clock net sourced by a combinational pin system_top_inst/system/tim0/timer_base/cntrHS[31]_i_3/O, cell system_top_inst/system/tim0/timer_base/cntrHS[31]_i_3. This is not good design practice and will likely impact performance. For SLICE registers, for example, use the CE pin to control the loading of data.
Related violations: <none>

PDRC-153#14 Warning
Gated clock check  
Net system_top_inst/system/tim1/timer_base/clk_tmr_gl is a gated clock net sourced by a combinational pin system_top_inst/system/tim1/timer_base/cntrHS[31]_i_3__0/O, cell system_top_inst/system/tim1/timer_base/cntrHS[31]_i_3__0. This is not good design practice and will likely impact performance. For SLICE registers, for example, use the CE pin to control the loading of data.
Related violations: <none>

PLCK-12#1 Warning
Clock Placer Checks  
Poor placement for routing between an IO pin and BUFG. 
Resolution: Poor placement of an IO pin and a BUFG has resulted in the router using a non-dedicated path between the two.  There are several things that could trigger this DRC, each of which can cause unpredictable clock insertion delays that result in poor timing.  This DRC could be caused by any of the following: (a) a clock port was placed on a pin that is not a CCIO-pin (b)the BUFG has not been placed in the same half of the device or SLR as the CCIO-pin (c) a single ended clock has been placed on the N-Side of a differential pair CCIO-pin.
 This is normally an ERROR but the CLOCK_DEDICATED_ROUTE constraint is set to FALSE allowing your design to continue. The use of this override is highly discouraged as it may lead to very poor timing results. It is recommended that this error condition be corrected in the design.

	JA_IBUF[1]_inst (IBUF.O) is locked to C17
	JA_IBUF[1]_BUFG_inst (BUFG.I) is provisionally placed by clockplacer on BUFGCTRL_X0Y0

Related violations: <none>

PLHOLDVIO-2#1 Warning
Non-Optimal connections which could lead to hold violations  
A LUT system_top_inst/system/dbg/tdr/j_flag[0]_i_2 is driving clock pin of 1 cells. This could lead to large hold time violations. First few involved cells are:
    system_top_inst/system/cpu_top/cpu/core/i_control_unit/i_irq_control/j_flag_reg[0] {FDCE}

Related violations: <none>

PLHOLDVIO-2#2 Warning
Non-Optimal connections which could lead to hold violations  
A LUT system_top_inst/system/dbg/tdr/j_flag[2]_i_2 is driving clock pin of 1 cells. This could lead to large hold time violations. First few involved cells are:
    system_top_inst/system/cpu_top/cpu/core/i_control_unit/i_irq_control/j_flag_reg[2] {FDCE}

Related violations: <none>

PLHOLDVIO-2#3 Warning
Non-Optimal connections which could lead to hold violations  
A LUT system_top_inst/system/dbg/tdr/j_flag[3]_i_2 is driving clock pin of 1 cells. This could lead to large hold time violations. First few involved cells are:
    system_top_inst/system/cpu_top/cpu/core/i_control_unit/i_irq_control/j_flag_reg[3] {FDCE}

Related violations: <none>

PLHOLDVIO-2#4 Warning
Non-Optimal connections which could lead to hold violations  
A LUT system_top_inst/system/dbg/tdr/j_flag[4]_i_2 is driving clock pin of 1 cells. This could lead to large hold time violations. First few involved cells are:
    system_top_inst/system/cpu_top/cpu/core/i_control_unit/i_irq_control/j_flag_reg[4] {FDCE}

Related violations: <none>

PLHOLDVIO-2#5 Warning
Non-Optimal connections which could lead to hold violations  
A LUT system_top_inst/system/dbg/tdr/j_flag[5]_i_2 is driving clock pin of 1 cells. This could lead to large hold time violations. First few involved cells are:
    system_top_inst/system/cpu_top/cpu/core/i_control_unit/i_irq_control/j_flag_reg[5] {FDCE}

Related violations: <none>

PLHOLDVIO-2#6 Warning
Non-Optimal connections which could lead to hold violations  
A LUT system_top_inst/system/dbg/tdr/j_flag[6]_i_2 is driving clock pin of 1 cells. This could lead to large hold time violations. First few involved cells are:
    system_top_inst/system/cpu_top/cpu/core/i_control_unit/i_irq_control/j_flag_reg[6] {FDCE}

Related violations: <none>

PLHOLDVIO-2#7 Warning
Non-Optimal connections which could lead to hold violations  
A LUT system_top_inst/system/integrat_irq/j_flag[1]_i_1 is driving clock pin of 1 cells. This could lead to large hold time violations. First few involved cells are:
    system_top_inst/system/cpu_top/cpu/core/i_control_unit/i_irq_control/j_flag_reg[1] {FDCE}

Related violations: <none>

PLHOLDVIO-2#8 Warning
Non-Optimal connections which could lead to hold violations  
A LUT system_top_inst/system/integrat_irq/regIRQ0_p_i_1 is driving clock pin of 2 cells. This could lead to large hold time violations. First few involved cells are:
    system_top_inst/system/irqcu/irqERR0_reg {FDCE}
    system_top_inst/system/irqcu/regIRQ0_p_reg {FDCE}

Related violations: <none>

PLHOLDVIO-2#9 Warning
Non-Optimal connections which could lead to hold violations  
A LUT system_top_inst/system/integrat_irq/regIRQ13_p_i_1 is driving clock pin of 2 cells. This could lead to large hold time violations. First few involved cells are:
    system_top_inst/system/irqcu/irqERR13_reg {FDCE}
    system_top_inst/system/irqcu/regIRQ13_p_reg {FDCE}

Related violations: <none>

PLHOLDVIO-2#10 Warning
Non-Optimal connections which could lead to hold violations  
A LUT system_top_inst/system/irqcu/j_flag[7]_i_2 is driving clock pin of 1 cells. This could lead to large hold time violations. First few involved cells are:
    system_top_inst/system/cpu_top/cpu/core/i_control_unit/i_irq_control/j_flag_reg[7] {FDCE}

Related violations: <none>

PLHOLDVIO-2#11 Warning
Non-Optimal connections which could lead to hold violations  
A LUT system_top_inst/system/tim0/timer_base/cntrHS[31]_i_3 is driving clock pin of 71 cells. This could lead to large hold time violations. First few involved cells are:
    system_top_inst/system/tim0/timer_base/clkDividerHS_reg[0] {FDPE}
    system_top_inst/system/tim0/timer_base/clkDividerHS_reg[1] {FDPE}
    system_top_inst/system/tim0/timer_base/clkDividerHS_reg[2] {FDPE}
    system_top_inst/system/tim0/timer_base/clkDividerHS_reg[3] {FDPE}
    system_top_inst/system/tim0/timer_base/clkDividerHS_reg[4] {FDPE}
    system_top_inst/system/tim0/timer_base/clkDividerHS_reg[5] {FDPE}
    system_top_inst/system/tim0/timer_base/clkDividerHS_reg[6] {FDPE}
    system_top_inst/system/tim0/timer_base/cntPWM_reg[0] {FDCE}
    system_top_inst/system/tim0/timer_base/cntPWM_reg[10] {FDCE}

Related violations: <none>

PLHOLDVIO-2#12 Warning
Non-Optimal connections which could lead to hold violations  
A LUT system_top_inst/system/tim1/timer_base/cntrHS[31]_i_3__0 is driving clock pin of 71 cells. This could lead to large hold time violations. First few involved cells are:
    system_top_inst/system/tim1/timer_base/clkDividerHS_reg[0] {FDPE}
    system_top_inst/system/tim1/timer_base/clkDividerHS_reg[1] {FDPE}
    system_top_inst/system/tim1/timer_base/clkDividerHS_reg[2] {FDPE}
    system_top_inst/system/tim1/timer_base/clkDividerHS_reg[3] {FDPE}
    system_top_inst/system/tim1/timer_base/clkDividerHS_reg[4] {FDPE}
    system_top_inst/system/tim1/timer_base/clkDividerHS_reg[5] {FDPE}
    system_top_inst/system/tim1/timer_base/clkDividerHS_reg[6] {FDPE}
    system_top_inst/system/tim1/timer_base/cntPWM_reg[0] {FDCE}
    system_top_inst/system/tim1/timer_base/cntPWM_reg[10] {FDCE}

Related violations: <none>

REQP-1839#1 Warning
RAMB36 async control check  
The RAMB36E1 system_top_inst/system/cpu_top/cpu/trace_ram/data_mem/cells_reg_0 has an input control pin system_top_inst/system/cpu_top/cpu/trace_ram/data_mem/cells_reg_0/ADDRARDADDR[10] (net: system_top_inst/system/cpu_top/cpu/core_n_266) which is driven by a register (system_top_inst/system/cpu_top/cpu/core/i_control_unit/i_state/state_reg[0]) that has an active asychronous set or reset. This may cause corruption of the memory contents and/or read values when the set/reset is asserted and is not analyzed by the default static timing analysis. It is suggested to eliminate the use of a set/reset to registers driving this RAMB pin or else use a synchronous reset in which the assertion of the reset is timed by default.
Related violations: <none>

REQP-1839#2 Warning
RAMB36 async control check  
The RAMB36E1 system_top_inst/system/cpu_top/cpu/trace_ram/data_mem/cells_reg_0 has an input control pin system_top_inst/system/cpu_top/cpu/trace_ram/data_mem/cells_reg_0/ADDRARDADDR[10] (net: system_top_inst/system/cpu_top/cpu/core_n_266) which is driven by a register (system_top_inst/system/cpu_top/cpu/core/i_control_unit/i_state/state_reg[2]) that has an active asychronous set or reset. This may cause corruption of the memory contents and/or read values when the set/reset is asserted and is not analyzed by the default static timing analysis. It is suggested to eliminate the use of a set/reset to registers driving this RAMB pin or else use a synchronous reset in which the assertion of the reset is timed by default.
Related violations: <none>

REQP-1839#3 Warning
RAMB36 async control check  
The RAMB36E1 system_top_inst/system/cpu_top/cpu/trace_ram/data_mem/cells_reg_0 has an input control pin system_top_inst/system/cpu_top/cpu/trace_ram/data_mem/cells_reg_0/ADDRARDADDR[10] (net: system_top_inst/system/cpu_top/cpu/core_n_266) which is driven by a register (system_top_inst/system/cpu_top/cpu/core/i_control_unit/i_state/state_reg[3]) that has an active asychronous set or reset. This may cause corruption of the memory contents and/or read values when the set/reset is asserted and is not analyzed by the default static timing analysis. It is suggested to eliminate the use of a set/reset to registers driving this RAMB pin or else use a synchronous reset in which the assertion of the reset is timed by default.
Related violations: <none>

REQP-1839#4 Warning
RAMB36 async control check  
The RAMB36E1 system_top_inst/system/cpu_top/cpu/trace_ram/data_mem/cells_reg_0 has an input control pin system_top_inst/system/cpu_top/cpu/trace_ram/data_mem/cells_reg_0/ADDRARDADDR[10] (net: system_top_inst/system/cpu_top/cpu/core_n_266) which is driven by a register (system_top_inst/system/cpu_top/cpu/core/i_control_unit/tracer_jump/r_addr_reg[6]) that has an active asychronous set or reset. This may cause corruption of the memory contents and/or read values when the set/reset is asserted and is not analyzed by the default static timing analysis. It is suggested to eliminate the use of a set/reset to registers driving this RAMB pin or else use a synchronous reset in which the assertion of the reset is timed by default.
Related violations: <none>

REQP-1839#5 Warning
RAMB36 async control check  
The RAMB36E1 system_top_inst/system/cpu_top/cpu/trace_ram/data_mem/cells_reg_0 has an input control pin system_top_inst/system/cpu_top/cpu/trace_ram/data_mem/cells_reg_0/ADDRARDADDR[10] (net: system_top_inst/system/cpu_top/cpu/core_n_266) which is driven by a register (system_top_inst/system/cpu_top/cpu/core/i_control_unit/tracer_jump/w_addr_reg[6]) that has an active asychronous set or reset. This may cause corruption of the memory contents and/or read values when the set/reset is asserted and is not analyzed by the default static timing analysis. It is suggested to eliminate the use of a set/reset to registers driving this RAMB pin or else use a synchronous reset in which the assertion of the reset is timed by default.
Related violations: <none>

REQP-1839#6 Warning
RAMB36 async control check  
The RAMB36E1 system_top_inst/system/cpu_top/cpu/trace_ram/data_mem/cells_reg_0 has an input control pin system_top_inst/system/cpu_top/cpu/trace_ram/data_mem/cells_reg_0/ADDRARDADDR[11] (net: system_top_inst/system/cpu_top/cpu/core_n_265) which is driven by a register (system_top_inst/system/cpu_top/cpu/core/i_control_unit/i_state/jump_wait_SDM_reg) that has an active asychronous set or reset. This may cause corruption of the memory contents and/or read values when the set/reset is asserted and is not analyzed by the default static timing analysis. It is suggested to eliminate the use of a set/reset to registers driving this RAMB pin or else use a synchronous reset in which the assertion of the reset is timed by default.
Related violations: <none>

REQP-1839#7 Warning
RAMB36 async control check  
The RAMB36E1 system_top_inst/system/cpu_top/cpu/trace_ram/data_mem/cells_reg_0 has an input control pin system_top_inst/system/cpu_top/cpu/trace_ram/data_mem/cells_reg_0/ADDRARDADDR[11] (net: system_top_inst/system/cpu_top/cpu/core_n_265) which is driven by a register (system_top_inst/system/cpu_top/cpu/core/i_control_unit/i_state/state_reg[0]) that has an active asychronous set or reset. This may cause corruption of the memory contents and/or read values when the set/reset is asserted and is not analyzed by the default static timing analysis. It is suggested to eliminate the use of a set/reset to registers driving this RAMB pin or else use a synchronous reset in which the assertion of the reset is timed by default.
Related violations: <none>

REQP-1839#8 Warning
RAMB36 async control check  
The RAMB36E1 system_top_inst/system/cpu_top/cpu/trace_ram/data_mem/cells_reg_0 has an input control pin system_top_inst/system/cpu_top/cpu/trace_ram/data_mem/cells_reg_0/ADDRARDADDR[11] (net: system_top_inst/system/cpu_top/cpu/core_n_265) which is driven by a register (system_top_inst/system/cpu_top/cpu/core/i_control_unit/i_state/state_reg[1]) that has an active asychronous set or reset. This may cause corruption of the memory contents and/or read values when the set/reset is asserted and is not analyzed by the default static timing analysis. It is suggested to eliminate the use of a set/reset to registers driving this RAMB pin or else use a synchronous reset in which the assertion of the reset is timed by default.
Related violations: <none>

REQP-1839#9 Warning
RAMB36 async control check  
The RAMB36E1 system_top_inst/system/cpu_top/cpu/trace_ram/data_mem/cells_reg_0 has an input control pin system_top_inst/system/cpu_top/cpu/trace_ram/data_mem/cells_reg_0/ADDRARDADDR[11] (net: system_top_inst/system/cpu_top/cpu/core_n_265) which is driven by a register (system_top_inst/system/cpu_top/cpu/core/i_control_unit/i_state/state_reg[2]) that has an active asychronous set or reset. This may cause corruption of the memory contents and/or read values when the set/reset is asserted and is not analyzed by the default static timing analysis. It is suggested to eliminate the use of a set/reset to registers driving this RAMB pin or else use a synchronous reset in which the assertion of the reset is timed by default.
Related violations: <none>

REQP-1839#10 Warning
RAMB36 async control check  
The RAMB36E1 system_top_inst/system/cpu_top/cpu/trace_ram/data_mem/cells_reg_0 has an input control pin system_top_inst/system/cpu_top/cpu/trace_ram/data_mem/cells_reg_0/ADDRARDADDR[11] (net: system_top_inst/system/cpu_top/cpu/core_n_265) which is driven by a register (system_top_inst/system/cpu_top/cpu/core/i_control_unit/i_state/state_reg[3]) that has an active asychronous set or reset. This may cause corruption of the memory contents and/or read values when the set/reset is asserted and is not analyzed by the default static timing analysis. It is suggested to eliminate the use of a set/reset to registers driving this RAMB pin or else use a synchronous reset in which the assertion of the reset is timed by default.
Related violations: <none>

REQP-1839#11 Warning
RAMB36 async control check  
The RAMB36E1 system_top_inst/system/cpu_top/cpu/trace_ram/data_mem/cells_reg_0 has an input control pin system_top_inst/system/cpu_top/cpu/trace_ram/data_mem/cells_reg_0/ADDRARDADDR[11] (net: system_top_inst/system/cpu_top/cpu/core_n_265) which is driven by a register (system_top_inst/system/cpu_top/cpu/core/i_control_unit/i_state/state_reg[4]) that has an active asychronous set or reset. This may cause corruption of the memory contents and/or read values when the set/reset is asserted and is not analyzed by the default static timing analysis. It is suggested to eliminate the use of a set/reset to registers driving this RAMB pin or else use a synchronous reset in which the assertion of the reset is timed by default.
Related violations: <none>

REQP-1839#12 Warning
RAMB36 async control check  
The RAMB36E1 system_top_inst/system/cpu_top/cpu/trace_ram/data_mem/cells_reg_0 has an input control pin system_top_inst/system/cpu_top/cpu/trace_ram/data_mem/cells_reg_0/ADDRARDADDR[11] (net: system_top_inst/system/cpu_top/cpu/core_n_265) which is driven by a register (system_top_inst/system/cpu_top/cpu/core/i_control_unit/tracer_jump/r_addr_reg[7]) that has an active asychronous set or reset. This may cause corruption of the memory contents and/or read values when the set/reset is asserted and is not analyzed by the default static timing analysis. It is suggested to eliminate the use of a set/reset to registers driving this RAMB pin or else use a synchronous reset in which the assertion of the reset is timed by default.
Related violations: <none>

REQP-1839#13 Warning
RAMB36 async control check  
The RAMB36E1 system_top_inst/system/cpu_top/cpu/trace_ram/data_mem/cells_reg_0 has an input control pin system_top_inst/system/cpu_top/cpu/trace_ram/data_mem/cells_reg_0/ADDRARDADDR[11] (net: system_top_inst/system/cpu_top/cpu/core_n_265) which is driven by a register (system_top_inst/system/cpu_top/cpu/core/i_control_unit/tracer_jump/w_addr_reg[7]) that has an active asychronous set or reset. This may cause corruption of the memory contents and/or read values when the set/reset is asserted and is not analyzed by the default static timing analysis. It is suggested to eliminate the use of a set/reset to registers driving this RAMB pin or else use a synchronous reset in which the assertion of the reset is timed by default.
Related violations: <none>

REQP-1839#14 Warning
RAMB36 async control check  
The RAMB36E1 system_top_inst/system/cpu_top/cpu/trace_ram/data_mem/cells_reg_0 has an input control pin system_top_inst/system/cpu_top/cpu/trace_ram/data_mem/cells_reg_0/ADDRARDADDR[11] (net: system_top_inst/system/cpu_top/cpu/core_n_265) which is driven by a register (system_top_inst/system/dbg/tap/instr_reg[0]) that has an active asychronous set or reset. This may cause corruption of the memory contents and/or read values when the set/reset is asserted and is not analyzed by the default static timing analysis. It is suggested to eliminate the use of a set/reset to registers driving this RAMB pin or else use a synchronous reset in which the assertion of the reset is timed by default.
Related violations: <none>

REQP-1839#15 Warning
RAMB36 async control check  
The RAMB36E1 system_top_inst/system/cpu_top/cpu/trace_ram/data_mem/cells_reg_0 has an input control pin system_top_inst/system/cpu_top/cpu/trace_ram/data_mem/cells_reg_0/ADDRARDADDR[11] (net: system_top_inst/system/cpu_top/cpu/core_n_265) which is driven by a register (system_top_inst/system/dbg/tap/instr_reg[1]) that has an active asychronous set or reset. This may cause corruption of the memory contents and/or read values when the set/reset is asserted and is not analyzed by the default static timing analysis. It is suggested to eliminate the use of a set/reset to registers driving this RAMB pin or else use a synchronous reset in which the assertion of the reset is timed by default.
Related violations: <none>

REQP-1839#16 Warning
RAMB36 async control check  
The RAMB36E1 system_top_inst/system/cpu_top/cpu/trace_ram/data_mem/cells_reg_0 has an input control pin system_top_inst/system/cpu_top/cpu/trace_ram/data_mem/cells_reg_0/ADDRARDADDR[11] (net: system_top_inst/system/cpu_top/cpu/core_n_265) which is driven by a register (system_top_inst/system/dbg/tap/instr_reg[2]) that has an active asychronous set or reset. This may cause corruption of the memory contents and/or read values when the set/reset is asserted and is not analyzed by the default static timing analysis. It is suggested to eliminate the use of a set/reset to registers driving this RAMB pin or else use a synchronous reset in which the assertion of the reset is timed by default.
Related violations: <none>

REQP-1839#17 Warning
RAMB36 async control check  
The RAMB36E1 system_top_inst/system/cpu_top/cpu/trace_ram/data_mem/cells_reg_0 has an input control pin system_top_inst/system/cpu_top/cpu/trace_ram/data_mem/cells_reg_0/ADDRARDADDR[11] (net: system_top_inst/system/cpu_top/cpu/core_n_265) which is driven by a register (system_top_inst/system/dbg/tap/instr_reg[3]) that has an active asychronous set or reset. This may cause corruption of the memory contents and/or read values when the set/reset is asserted and is not analyzed by the default static timing analysis. It is suggested to eliminate the use of a set/reset to registers driving this RAMB pin or else use a synchronous reset in which the assertion of the reset is timed by default.
Related violations: <none>

REQP-1839#18 Warning
RAMB36 async control check  
The RAMB36E1 system_top_inst/system/cpu_top/cpu/trace_ram/data_mem/cells_reg_0 has an input control pin system_top_inst/system/cpu_top/cpu/trace_ram/data_mem/cells_reg_0/ADDRARDADDR[11] (net: system_top_inst/system/cpu_top/cpu/core_n_265) which is driven by a register (system_top_inst/system/dbg/tap/instr_reg[4]) that has an active asychronous set or reset. This may cause corruption of the memory contents and/or read values when the set/reset is asserted and is not analyzed by the default static timing analysis. It is suggested to eliminate the use of a set/reset to registers driving this RAMB pin or else use a synchronous reset in which the assertion of the reset is timed by default.
Related violations: <none>

REQP-1839#19 Warning
RAMB36 async control check  
The RAMB36E1 system_top_inst/system/cpu_top/cpu/trace_ram/data_mem/cells_reg_0 has an input control pin system_top_inst/system/cpu_top/cpu/trace_ram/data_mem/cells_reg_0/ADDRARDADDR[11] (net: system_top_inst/system/cpu_top/cpu/core_n_265) which is driven by a register (system_top_inst/system/dbg/tap/instr_reg[5]) that has an active asychronous set or reset. This may cause corruption of the memory contents and/or read values when the set/reset is asserted and is not analyzed by the default static timing analysis. It is suggested to eliminate the use of a set/reset to registers driving this RAMB pin or else use a synchronous reset in which the assertion of the reset is timed by default.
Related violations: <none>

REQP-1839#20 Warning
RAMB36 async control check  
The RAMB36E1 system_top_inst/system/cpu_top/cpu/trace_ram/data_mem/cells_reg_0 has an input control pin system_top_inst/system/cpu_top/cpu/trace_ram/data_mem/cells_reg_0/ADDRARDADDR[11] (net: system_top_inst/system/cpu_top/cpu/core_n_265) which is driven by a register (system_top_inst/system/dbg/tdr/DebugMode_reg) that has an active asychronous set or reset. This may cause corruption of the memory contents and/or read values when the set/reset is asserted and is not analyzed by the default static timing analysis. It is suggested to eliminate the use of a set/reset to registers driving this RAMB pin or else use a synchronous reset in which the assertion of the reset is timed by default.
Related violations: <none>

REQP-1840#1 Warning
RAMB18 async control check  
The RAMB18E1 system_top_inst/system/buffer/buffer_256_32/data_mem/cells_reg has an input control pin system_top_inst/system/buffer/buffer_256_32/data_mem/cells_reg/ADDRARDADDR[12] (net: system_top_inst/system/buffer/buffer_256_32/data_mem/ADDRBWRADDR[7]) which is driven by a register (system_top_inst/system/answer/bus_err_rg_reg) that has an active asychronous set or reset. This may cause corruption of the memory contents and/or read values when the set/reset is asserted and is not analyzed by the default static timing analysis. It is suggested to eliminate the use of a set/reset to registers driving this RAMB pin or else use a synchronous reset in which the assertion of the reset is timed by default.
Related violations: <none>

REQP-1840#2 Warning
RAMB18 async control check  
The RAMB18E1 system_top_inst/system/buffer/buffer_256_32/data_mem/cells_reg has an input control pin system_top_inst/system/buffer/buffer_256_32/data_mem/cells_reg/ADDRARDADDR[12] (net: system_top_inst/system/buffer/buffer_256_32/data_mem/ADDRBWRADDR[7]) which is driven by a register (system_top_inst/system/answer/hburst_err_reg) that has an active asychronous set or reset. This may cause corruption of the memory contents and/or read values when the set/reset is asserted and is not analyzed by the default static timing analysis. It is suggested to eliminate the use of a set/reset to registers driving this RAMB pin or else use a synchronous reset in which the assertion of the reset is timed by default.
Related violations: <none>

REQP-1840#3 Warning
RAMB18 async control check  
The RAMB18E1 system_top_inst/system/buffer/buffer_256_32/data_mem/cells_reg has an input control pin system_top_inst/system/buffer/buffer_256_32/data_mem/cells_reg/ADDRARDADDR[12] (net: system_top_inst/system/buffer/buffer_256_32/data_mem/ADDRBWRADDR[7]) which is driven by a register (system_top_inst/system/arbiter/g0_reg) that has an active asychronous set or reset. This may cause corruption of the memory contents and/or read values when the set/reset is asserted and is not analyzed by the default static timing analysis. It is suggested to eliminate the use of a set/reset to registers driving this RAMB pin or else use a synchronous reset in which the assertion of the reset is timed by default.
Related violations: <none>

REQP-1840#4 Warning
RAMB18 async control check  
The RAMB18E1 system_top_inst/system/buffer/buffer_256_32/data_mem/cells_reg has an input control pin system_top_inst/system/buffer/buffer_256_32/data_mem/cells_reg/ADDRARDADDR[12] (net: system_top_inst/system/buffer/buffer_256_32/data_mem/ADDRBWRADDR[7]) which is driven by a register (system_top_inst/system/arbiter/g2_reg) that has an active asychronous set or reset. This may cause corruption of the memory contents and/or read values when the set/reset is asserted and is not analyzed by the default static timing analysis. It is suggested to eliminate the use of a set/reset to registers driving this RAMB pin or else use a synchronous reset in which the assertion of the reset is timed by default.
Related violations: <none>

REQP-1840#5 Warning
RAMB18 async control check  
The RAMB18E1 system_top_inst/system/buffer/buffer_256_32/data_mem/cells_reg has an input control pin system_top_inst/system/buffer/buffer_256_32/data_mem/cells_reg/ADDRARDADDR[12] (net: system_top_inst/system/buffer/buffer_256_32/data_mem/ADDRBWRADDR[7]) which is driven by a register (system_top_inst/system/buffer/ADR_wr_reg[0]) that has an active asychronous set or reset. This may cause corruption of the memory contents and/or read values when the set/reset is asserted and is not analyzed by the default static timing analysis. It is suggested to eliminate the use of a set/reset to registers driving this RAMB pin or else use a synchronous reset in which the assertion of the reset is timed by default.
Related violations: <none>

REQP-1840#6 Warning
RAMB18 async control check  
The RAMB18E1 system_top_inst/system/buffer/buffer_256_32/data_mem/cells_reg has an input control pin system_top_inst/system/buffer/buffer_256_32/data_mem/cells_reg/ADDRARDADDR[12] (net: system_top_inst/system/buffer/buffer_256_32/data_mem/ADDRBWRADDR[7]) which is driven by a register (system_top_inst/system/buffer/ADR_wr_reg[1]) that has an active asychronous set or reset. This may cause corruption of the memory contents and/or read values when the set/reset is asserted and is not analyzed by the default static timing analysis. It is suggested to eliminate the use of a set/reset to registers driving this RAMB pin or else use a synchronous reset in which the assertion of the reset is timed by default.
Related violations: <none>

REQP-1840#7 Warning
RAMB18 async control check  
The RAMB18E1 system_top_inst/system/buffer/buffer_256_32/data_mem/cells_reg has an input control pin system_top_inst/system/buffer/buffer_256_32/data_mem/cells_reg/ADDRARDADDR[12] (net: system_top_inst/system/buffer/buffer_256_32/data_mem/ADDRBWRADDR[7]) which is driven by a register (system_top_inst/system/buffer/ADR_wr_reg[2]) that has an active asychronous set or reset. This may cause corruption of the memory contents and/or read values when the set/reset is asserted and is not analyzed by the default static timing analysis. It is suggested to eliminate the use of a set/reset to registers driving this RAMB pin or else use a synchronous reset in which the assertion of the reset is timed by default.
Related violations: <none>

REQP-1840#8 Warning
RAMB18 async control check  
The RAMB18E1 system_top_inst/system/buffer/buffer_256_32/data_mem/cells_reg has an input control pin system_top_inst/system/buffer/buffer_256_32/data_mem/cells_reg/ADDRARDADDR[12] (net: system_top_inst/system/buffer/buffer_256_32/data_mem/ADDRBWRADDR[7]) which is driven by a register (system_top_inst/system/buffer/ADR_wr_reg[3]) that has an active asychronous set or reset. This may cause corruption of the memory contents and/or read values when the set/reset is asserted and is not analyzed by the default static timing analysis. It is suggested to eliminate the use of a set/reset to registers driving this RAMB pin or else use a synchronous reset in which the assertion of the reset is timed by default.
Related violations: <none>

REQP-1840#9 Warning
RAMB18 async control check  
The RAMB18E1 system_top_inst/system/buffer/buffer_256_32/data_mem/cells_reg has an input control pin system_top_inst/system/buffer/buffer_256_32/data_mem/cells_reg/ADDRARDADDR[12] (net: system_top_inst/system/buffer/buffer_256_32/data_mem/ADDRBWRADDR[7]) which is driven by a register (system_top_inst/system/buffer/ADR_wr_reg[4]) that has an active asychronous set or reset. This may cause corruption of the memory contents and/or read values when the set/reset is asserted and is not analyzed by the default static timing analysis. It is suggested to eliminate the use of a set/reset to registers driving this RAMB pin or else use a synchronous reset in which the assertion of the reset is timed by default.
Related violations: <none>

REQP-1840#10 Warning
RAMB18 async control check  
The RAMB18E1 system_top_inst/system/buffer/buffer_256_32/data_mem/cells_reg has an input control pin system_top_inst/system/buffer/buffer_256_32/data_mem/cells_reg/ADDRARDADDR[12] (net: system_top_inst/system/buffer/buffer_256_32/data_mem/ADDRBWRADDR[7]) which is driven by a register (system_top_inst/system/buffer/ADR_wr_reg[5]) that has an active asychronous set or reset. This may cause corruption of the memory contents and/or read values when the set/reset is asserted and is not analyzed by the default static timing analysis. It is suggested to eliminate the use of a set/reset to registers driving this RAMB pin or else use a synchronous reset in which the assertion of the reset is timed by default.
Related violations: <none>

REQP-1840#11 Warning
RAMB18 async control check  
The RAMB18E1 system_top_inst/system/buffer/buffer_256_32/data_mem/cells_reg has an input control pin system_top_inst/system/buffer/buffer_256_32/data_mem/cells_reg/ADDRARDADDR[12] (net: system_top_inst/system/buffer/buffer_256_32/data_mem/ADDRBWRADDR[7]) which is driven by a register (system_top_inst/system/buffer/ADR_wr_reg[6]) that has an active asychronous set or reset. This may cause corruption of the memory contents and/or read values when the set/reset is asserted and is not analyzed by the default static timing analysis. It is suggested to eliminate the use of a set/reset to registers driving this RAMB pin or else use a synchronous reset in which the assertion of the reset is timed by default.
Related violations: <none>

REQP-1840#12 Warning
RAMB18 async control check  
The RAMB18E1 system_top_inst/system/buffer/buffer_256_32/data_mem/cells_reg has an input control pin system_top_inst/system/buffer/buffer_256_32/data_mem/cells_reg/ADDRARDADDR[12] (net: system_top_inst/system/buffer/buffer_256_32/data_mem/ADDRBWRADDR[7]) which is driven by a register (system_top_inst/system/buffer/ADR_wr_reg[7]) that has an active asychronous set or reset. This may cause corruption of the memory contents and/or read values when the set/reset is asserted and is not analyzed by the default static timing analysis. It is suggested to eliminate the use of a set/reset to registers driving this RAMB pin or else use a synchronous reset in which the assertion of the reset is timed by default.
Related violations: <none>

REQP-1840#13 Warning
RAMB18 async control check  
The RAMB18E1 system_top_inst/system/buffer/buffer_256_32/data_mem/cells_reg has an input control pin system_top_inst/system/buffer/buffer_256_32/data_mem/cells_reg/ADDRARDADDR[12] (net: system_top_inst/system/buffer/buffer_256_32/data_mem/ADDRBWRADDR[7]) which is driven by a register (system_top_inst/system/buffer/ADR_wr_reg[8]) that has an active asychronous set or reset. This may cause corruption of the memory contents and/or read values when the set/reset is asserted and is not analyzed by the default static timing analysis. It is suggested to eliminate the use of a set/reset to registers driving this RAMB pin or else use a synchronous reset in which the assertion of the reset is timed by default.
Related violations: <none>

REQP-1840#14 Warning
RAMB18 async control check  
The RAMB18E1 system_top_inst/system/buffer/buffer_256_32/data_mem/cells_reg has an input control pin system_top_inst/system/buffer/buffer_256_32/data_mem/cells_reg/ADDRARDADDR[12] (net: system_top_inst/system/buffer/buffer_256_32/data_mem/ADDRBWRADDR[7]) which is driven by a register (system_top_inst/system/buffer/ADR_wr_reg[9]) that has an active asychronous set or reset. This may cause corruption of the memory contents and/or read values when the set/reset is asserted and is not analyzed by the default static timing analysis. It is suggested to eliminate the use of a set/reset to registers driving this RAMB pin or else use a synchronous reset in which the assertion of the reset is timed by default.
Related violations: <none>

REQP-1840#15 Warning
RAMB18 async control check  
The RAMB18E1 system_top_inst/system/buffer/buffer_256_32/data_mem/cells_reg has an input control pin system_top_inst/system/buffer/buffer_256_32/data_mem/cells_reg/ADDRARDADDR[12] (net: system_top_inst/system/buffer/buffer_256_32/data_mem/ADDRBWRADDR[7]) which is driven by a register (system_top_inst/system/buffer/burst_err_reg) that has an active asychronous set or reset. This may cause corruption of the memory contents and/or read values when the set/reset is asserted and is not analyzed by the default static timing analysis. It is suggested to eliminate the use of a set/reset to registers driving this RAMB pin or else use a synchronous reset in which the assertion of the reset is timed by default.
Related violations: <none>

REQP-1840#16 Warning
RAMB18 async control check  
The RAMB18E1 system_top_inst/system/buffer/buffer_256_32/data_mem/cells_reg has an input control pin system_top_inst/system/buffer/buffer_256_32/data_mem/cells_reg/ADDRARDADDR[12] (net: system_top_inst/system/buffer/buffer_256_32/data_mem/ADDRBWRADDR[7]) which is driven by a register (system_top_inst/system/buffer/bus_reg_reg[0]) that has an active asychronous set or reset. This may cause corruption of the memory contents and/or read values when the set/reset is asserted and is not analyzed by the default static timing analysis. It is suggested to eliminate the use of a set/reset to registers driving this RAMB pin or else use a synchronous reset in which the assertion of the reset is timed by default.
Related violations: <none>

REQP-1840#17 Warning
RAMB18 async control check  
The RAMB18E1 system_top_inst/system/buffer/buffer_256_32/data_mem/cells_reg has an input control pin system_top_inst/system/buffer/buffer_256_32/data_mem/cells_reg/ADDRARDADDR[12] (net: system_top_inst/system/buffer/buffer_256_32/data_mem/ADDRBWRADDR[7]) which is driven by a register (system_top_inst/system/buffer/bus_reg_reg[1]) that has an active asychronous set or reset. This may cause corruption of the memory contents and/or read values when the set/reset is asserted and is not analyzed by the default static timing analysis. It is suggested to eliminate the use of a set/reset to registers driving this RAMB pin or else use a synchronous reset in which the assertion of the reset is timed by default.
Related violations: <none>

REQP-1840#18 Warning
RAMB18 async control check  
The RAMB18E1 system_top_inst/system/buffer/buffer_256_32/data_mem/cells_reg has an input control pin system_top_inst/system/buffer/buffer_256_32/data_mem/cells_reg/ADDRARDADDR[12] (net: system_top_inst/system/buffer/buffer_256_32/data_mem/ADDRBWRADDR[7]) which is driven by a register (system_top_inst/system/buffer/hburst_reg_reg[0]) that has an active asychronous set or reset. This may cause corruption of the memory contents and/or read values when the set/reset is asserted and is not analyzed by the default static timing analysis. It is suggested to eliminate the use of a set/reset to registers driving this RAMB pin or else use a synchronous reset in which the assertion of the reset is timed by default.
Related violations: <none>

REQP-1840#19 Warning
RAMB18 async control check  
The RAMB18E1 system_top_inst/system/buffer/buffer_256_32/data_mem/cells_reg has an input control pin system_top_inst/system/buffer/buffer_256_32/data_mem/cells_reg/ADDRARDADDR[12] (net: system_top_inst/system/buffer/buffer_256_32/data_mem/ADDRBWRADDR[7]) which is driven by a register (system_top_inst/system/buffer/hburst_reg_reg[2]) that has an active asychronous set or reset. This may cause corruption of the memory contents and/or read values when the set/reset is asserted and is not analyzed by the default static timing analysis. It is suggested to eliminate the use of a set/reset to registers driving this RAMB pin or else use a synchronous reset in which the assertion of the reset is timed by default.
Related violations: <none>

REQP-1840#20 Warning
RAMB18 async control check  
The RAMB18E1 system_top_inst/system/buffer/buffer_256_32/data_mem/cells_reg has an input control pin system_top_inst/system/buffer/buffer_256_32/data_mem/cells_reg/ADDRARDADDR[12] (net: system_top_inst/system/buffer/buffer_256_32/data_mem/ADDRBWRADDR[7]) which is driven by a register (system_top_inst/system/clock/hburst_err_reg) that has an active asychronous set or reset. This may cause corruption of the memory contents and/or read values when the set/reset is asserted and is not analyzed by the default static timing analysis. It is suggested to eliminate the use of a set/reset to registers driving this RAMB pin or else use a synchronous reset in which the assertion of the reset is timed by default.
Related violations: <none>

RPBF-3#1 Warning
IO port buffering is incomplete  
Device port JA[1] expects both input and output buffering but the buffers are incomplete.
Related violations: <none>

RPBF-3#2 Warning
IO port buffering is incomplete  
Device port JA[2] expects both input and output buffering but the buffers are incomplete.
Related violations: <none>

RPBF-3#3 Warning
IO port buffering is incomplete  
Device port JA[3] expects both input and output buffering but the buffers are incomplete.
Related violations: <none>

RPBF-3#4 Warning
IO port buffering is incomplete  
Device port JA[4] expects both input and output buffering but the buffers are incomplete.
Related violations: <none>

RPBF-3#5 Warning
IO port buffering is incomplete  
Device port JB[1] expects both input and output buffering but the buffers are incomplete.
Related violations: <none>

RPBF-3#6 Warning
IO port buffering is incomplete  
Device port JB[2] expects both input and output buffering but the buffers are incomplete.
Related violations: <none>

RPBF-3#7 Warning
IO port buffering is incomplete  
Device port JB[3] expects both input and output buffering but the buffers are incomplete.
Related violations: <none>

RPBF-3#8 Warning
IO port buffering is incomplete  
Device port JB[4] expects both input and output buffering but the buffers are incomplete.
Related violations: <none>

RPBF-3#9 Warning
IO port buffering is incomplete  
Device port LED[14] expects both input and output buffering but the buffers are incomplete.
Related violations: <none>

RPBF-3#10 Warning
IO port buffering is incomplete  
Device port LED[15] expects both input and output buffering but the buffers are incomplete.
Related violations: <none>

RPBF-3#11 Warning
IO port buffering is incomplete  
Device port SW[0] expects both input and output buffering but the buffers are incomplete.
Related violations: <none>

RPBF-3#12 Warning
IO port buffering is incomplete  
Device port SW[10] expects both input and output buffering but the buffers are incomplete.
Related violations: <none>

RPBF-3#13 Warning
IO port buffering is incomplete  
Device port SW[11] expects both input and output buffering but the buffers are incomplete.
Related violations: <none>

RPBF-3#14 Warning
IO port buffering is incomplete  
Device port SW[1] expects both input and output buffering but the buffers are incomplete.
Related violations: <none>

RPBF-3#15 Warning
IO port buffering is incomplete  
Device port SW[2] expects both input and output buffering but the buffers are incomplete.
Related violations: <none>

RPBF-3#16 Warning
IO port buffering is incomplete  
Device port SW[3] expects both input and output buffering but the buffers are incomplete.
Related violations: <none>

RPBF-3#17 Warning
IO port buffering is incomplete  
Device port SW[4] expects both input and output buffering but the buffers are incomplete.
Related violations: <none>

RPBF-3#18 Warning
IO port buffering is incomplete  
Device port SW[5] expects both input and output buffering but the buffers are incomplete.
Related violations: <none>

RPBF-3#19 Warning
IO port buffering is incomplete  
Device port SW[6] expects both input and output buffering but the buffers are incomplete.
Related violations: <none>

RPBF-3#20 Warning
IO port buffering is incomplete  
Device port SW[7] expects both input and output buffering but the buffers are incomplete.
Related violations: <none>

RPBF-3#21 Warning
IO port buffering is incomplete  
Device port SW[8] expects both input and output buffering but the buffers are incomplete.
Related violations: <none>

RPBF-3#22 Warning
IO port buffering is incomplete  
Device port SW[9] expects both input and output buffering but the buffers are incomplete.
Related violations: <none>


